"file","caption","category","png_time"
"/Users/awhitten/Bitbucket/Fisheries/snap-assess/models/BC/plots//bio1_sizeatage.png","Length at age in the beginning of the year (or season) in the ending year of the model. Shaded area indicates 95% distribution of length at age around estimated growth curve.","Bio",2017-11-28 00:46:50
"/Users/awhitten/Bitbucket/Fisheries/snap-assess/models/BC/plots//bio2_sizeatage_plus_CV_and_SD.png","Length at age (top-left panel) with CV (thick line) and SD (thin line) of length at age shown in top-right and lower-left panels","Bio",2017-11-28 00:46:50
"/Users/awhitten/Bitbucket/Fisheries/snap-assess/models/BC/plots//bio3_sizeatage_plus_WT_and_MAT.png","Length at age (top-left panel) with weight (thick line) and maturity (thin line) shown in top-right and lower-left panels","Bio",2017-11-28 00:46:50
"/Users/awhitten/Bitbucket/Fisheries/snap-assess/models/BC/plots//bio4_weightatsize.png","Weight-length relationship","Bio",2017-11-28 00:46:50
"/Users/awhitten/Bitbucket/Fisheries/snap-assess/models/BC/plots//bio5_maturity.png","Maturity at length","Bio",2017-11-28 00:46:50
"/Users/awhitten/Bitbucket/Fisheries/snap-assess/models/BC/plots//bio6_fecundity.png","Fecundity","Bio",2017-11-28 00:46:50
"/Users/awhitten/Bitbucket/Fisheries/snap-assess/models/BC/plots//bio7_fecundity_wt.png","Fecundity as a function of weight","Bio",2017-11-28 00:46:50
"/Users/awhitten/Bitbucket/Fisheries/snap-assess/models/BC/plots//bio8_fecundity_len.png","Fecundity as a function of length","Bio",2017-11-28 00:46:50
"/Users/awhitten/Bitbucket/Fisheries/snap-assess/models/BC/plots//bio9_spawningoutput.png","Spawning output at length","Bio",2017-11-28 00:46:50
"/Users/awhitten/Bitbucket/Fisheries/snap-assess/models/BC/plots/sel01_multiple_fleets_length1.png","Selectivity at length for multiple fleets.","Sel",2017-11-28 00:46:50
"/Users/awhitten/Bitbucket/Fisheries/snap-assess/models/BC/plots/sel02_multiple_fleets_age1.png","Selectivity at age for multiple fleets.","Sel",2017-11-28 00:46:50
"/Users/awhitten/Bitbucket/Fisheries/snap-assess/models/BC/plots/sel02_multiple_fleets_age2.png","Selectivity at age derived from selectivity at length for multiple fleets.","Sel",2017-11-28 00:46:50
"/Users/awhitten/Bitbucket/Fisheries/snap-assess/models/BC/plots/sel09_len_flt1sex1.png","Female ending year selectivity for Long_Line","Sel",2017-11-28 00:46:50
"/Users/awhitten/Bitbucket/Fisheries/snap-assess/models/BC/plots/sel09_len_flt1sex2.png","Male ending year selectivity for Long_Line","Sel",2017-11-28 00:46:50
"/Users/awhitten/Bitbucket/Fisheries/snap-assess/models/BC/plots/sel09_len_flt2sex1.png","Female ending year selectivity for Haul_Seine","Sel",2017-11-28 00:46:50
"/Users/awhitten/Bitbucket/Fisheries/snap-assess/models/BC/plots/sel09_len_flt2sex2.png","Male ending year selectivity for Haul_Seine","Sel",2017-11-28 00:46:50
"/Users/awhitten/Bitbucket/Fisheries/snap-assess/models/BC/plots/sel09_len_flt3sex1.png","Female ending year selectivity for Comm_Other","Sel",2017-11-28 00:46:50
"/Users/awhitten/Bitbucket/Fisheries/snap-assess/models/BC/plots/sel09_len_flt3sex2.png","Male ending year selectivity for Comm_Other","Sel",2017-11-28 00:46:50
"/Users/awhitten/Bitbucket/Fisheries/snap-assess/models/BC/plots/sel09_len_flt4sex1.png","Female ending year selectivity for RR_Pinky","Sel",2017-11-28 00:46:50
"/Users/awhitten/Bitbucket/Fisheries/snap-assess/models/BC/plots/sel09_len_flt4sex2.png","Male ending year selectivity for RR_Pinky","Sel",2017-11-28 00:46:50
"/Users/awhitten/Bitbucket/Fisheries/snap-assess/models/BC/plots/sel09_len_flt5sex1.png","Female ending year selectivity for RR_Adult","Sel",2017-11-28 00:46:50
"/Users/awhitten/Bitbucket/Fisheries/snap-assess/models/BC/plots/sel09_len_flt5sex2.png","Male ending year selectivity for RR_Adult","Sel",2017-11-28 00:46:50
"/Users/awhitten/Bitbucket/Fisheries/snap-assess/models/BC/plots/sel09_len_flt6sex1.png","Female ending year selectivity for Rec_Other","Sel",2017-11-28 00:46:50
"/Users/awhitten/Bitbucket/Fisheries/snap-assess/models/BC/plots/sel09_len_flt6sex2.png","Male ending year selectivity for Rec_Other","Sel",2017-11-28 00:46:50
"/Users/awhitten/Bitbucket/Fisheries/snap-assess/models/BC/plots/sel21_agelen_contour_flt1sex1.png","Female ending year selectivity and growth for Long_Line","Sel",2017-11-28 00:46:50
"/Users/awhitten/Bitbucket/Fisheries/snap-assess/models/BC/plots/sel21_agelen_contour_flt1sex2.png","Male ending year selectivity and growth for Long_Line","Sel",2017-11-28 00:46:50
"/Users/awhitten/Bitbucket/Fisheries/snap-assess/models/BC/plots/sel21_agelen_contour_flt2sex1.png","Female ending year selectivity and growth for Haul_Seine","Sel",2017-11-28 00:46:50
"/Users/awhitten/Bitbucket/Fisheries/snap-assess/models/BC/plots/sel21_agelen_contour_flt2sex2.png","Male ending year selectivity and growth for Haul_Seine","Sel",2017-11-28 00:46:50
"/Users/awhitten/Bitbucket/Fisheries/snap-assess/models/BC/plots/sel21_agelen_contour_flt3sex1.png","Female ending year selectivity and growth for Comm_Other","Sel",2017-11-28 00:46:50
"/Users/awhitten/Bitbucket/Fisheries/snap-assess/models/BC/plots/sel21_agelen_contour_flt3sex2.png","Male ending year selectivity and growth for Comm_Other","Sel",2017-11-28 00:46:50
"/Users/awhitten/Bitbucket/Fisheries/snap-assess/models/BC/plots/sel21_agelen_contour_flt4sex1.png","Female ending year selectivity and growth for RR_Pinky","Sel",2017-11-28 00:46:50
"/Users/awhitten/Bitbucket/Fisheries/snap-assess/models/BC/plots/sel21_agelen_contour_flt4sex2.png","Male ending year selectivity and growth for RR_Pinky","Sel",2017-11-28 00:46:50
"/Users/awhitten/Bitbucket/Fisheries/snap-assess/models/BC/plots/sel21_agelen_contour_flt5sex1.png","Female ending year selectivity and growth for RR_Adult","Sel",2017-11-28 00:46:50
"/Users/awhitten/Bitbucket/Fisheries/snap-assess/models/BC/plots/sel21_agelen_contour_flt5sex2.png","Male ending year selectivity and growth for RR_Adult","Sel",2017-11-28 00:46:50
"/Users/awhitten/Bitbucket/Fisheries/snap-assess/models/BC/plots/sel21_agelen_contour_flt6sex1.png","Female ending year selectivity and growth for Rec_Other","Sel",2017-11-28 00:46:50
"/Users/awhitten/Bitbucket/Fisheries/snap-assess/models/BC/plots/sel21_agelen_contour_flt6sex2.png","Male ending year selectivity and growth for Rec_Other","Sel",2017-11-28 00:46:50
"/Users/awhitten/Bitbucket/Fisheries/snap-assess/models/BC/plots/ts1_Total_biomass_(mt).png","Total biomass (mt)","Timeseries",2017-11-28 00:46:50
"/Users/awhitten/Bitbucket/Fisheries/snap-assess/models/BC/plots/ts4_Summary_biomass_(mt).png","Summary biomass (mt)","Timeseries",2017-11-28 00:46:50
"/Users/awhitten/Bitbucket/Fisheries/snap-assess/models/BC/plots/ts7_Spawning_biomass_(mt).png","Spawning biomass (mt)","Timeseries",2017-11-28 00:46:50
"/Users/awhitten/Bitbucket/Fisheries/snap-assess/models/BC/plots/ts7_Spawning_biomass_(mt)_with_95_asymptotic_intervals_intervals.png","Spawning biomass (mt) with ~95% asymptotic intervals","Timeseries",2017-11-28 00:46:50
"/Users/awhitten/Bitbucket/Fisheries/snap-assess/models/BC/plots/ts9_Spawning_depletion.png","Spawning depletion","Timeseries",2017-11-28 00:46:50
"/Users/awhitten/Bitbucket/Fisheries/snap-assess/models/BC/plots/ts9_Spawning_depletion_with_95_asymptotic_intervals_intervals.png","Spawning depletion with ~95% asymptotic intervals","Timeseries",2017-11-28 00:46:50
"/Users/awhitten/Bitbucket/Fisheries/snap-assess/models/BC/plots/ts11_Age-0_recruits_(1000s).png","Age-0 recruits (1,000s)","Timeseries",2017-11-28 00:46:50
"/Users/awhitten/Bitbucket/Fisheries/snap-assess/models/BC/plots/ts11_Age-0_recruits_(1000s)_with_95_asymptotic_intervals.png","Age-0 recruits (1,000s) with ~95% asymptotic intervals","Timeseries",2017-11-28 00:46:50
"/Users/awhitten/Bitbucket/Fisheries/snap-assess/models/BC/plots//ts_summaryF.png","Summary F (definition of F depends on setting in starter.ss)","Timeseries",2017-11-28 00:46:50
"/Users/awhitten/Bitbucket/Fisheries/snap-assess/models/BC/plots//recdevs1_points.png","Recruitment deviations","RecDev",2017-11-28 00:46:50
"/Users/awhitten/Bitbucket/Fisheries/snap-assess/models/BC/plots//recdevs2_withbars.png","Recruitment deviations with 95% intervals","RecDev",2017-11-28 00:46:50
"/Users/awhitten/Bitbucket/Fisheries/snap-assess/models/BC/plots//recdevs3_varcheck.png","Recruitment deviations variance check.<br> See later figure of transformed variance values for comparison with bias adjustment settings in the model.","RecDev",2017-11-28 00:46:50
"/Users/awhitten/Bitbucket/Fisheries/snap-assess/models/BC/plots//recruit_fit_bias_adjust.png","Points are transformed variances. Red line shows current settings forfor bias adjustment specified in control file.Blue line shows least squares estimate of alternative bias adjustmentrelationship for recruitment deviations (which may or may not be animprovement. For more information, see<br> 
<blockquote>Methot, R.D. and Taylor, I.G., 2011. Adjusting for bias due to variability of estimated recruitments in fishery assessment models. <i>Can. J. Fish. Aquat. Sci.</i>, 68:1744-1760.</blockquote><br> 
Estimated alternative inputs to SS control file associated with blue line in figure: 
<pre>1964.2   #_last_early_yr_nobias_adj_in_MPD 
1980.4   #_first_yr_fullbias_adj_in_MPD 
2014.8   #_last_yr_fullbias_adj_in_MPD 
2025.3   #_first_recent_yr_nobias_adj_in_MPD 
0.9642   #_max_bias_adj_in_MPD (1.0 to mimic pre-2009 models)   </pre>","RecDev",2017-11-28 00:46:50
"/Users/awhitten/Bitbucket/Fisheries/snap-assess/models/BC/plots//SR_curve.png","Spawner-recruit curve","S-R",2017-11-28 00:46:50
"/Users/awhitten/Bitbucket/Fisheries/snap-assess/models/BC/plots//SR_curve2.png","Spawner-recruit curve with labels on first, last, and years with (log) deviations > 0.5","S-R",2017-11-28 00:46:50
"/Users/awhitten/Bitbucket/Fisheries/snap-assess/models/BC/plots//catch1 landings.png","landings","Catch",2017-11-28 00:46:50
"/Users/awhitten/Bitbucket/Fisheries/snap-assess/models/BC/plots//catch2 landings stacked.png","landings stacked","Catch",2017-11-28 00:46:50
"/Users/awhitten/Bitbucket/Fisheries/snap-assess/models/BC/plots//catch9 harvest rate.png","harvest rate","Catch",2017-11-28 00:46:50
"/Users/awhitten/Bitbucket/Fisheries/snap-assess/models/BC/plots///SPR1_series.png","Timeseries of SPR","SPR",2017-11-28 00:46:50
"/Users/awhitten/Bitbucket/Fisheries/snap-assess/models/BC/plots///SPR2_minusSPRseries.png","Timeseries of 1-SPR","SPR",2017-11-28 00:46:50
"/Users/awhitten/Bitbucket/Fisheries/snap-assess/models/BC/plots//index2_cpuefit_Long_Line.png","Fit to index data for Long_Line. Lines indicate 95% uncertainty interval around index values. Thicker lines (if present) indicate input uncertainty before addition of estimated additional uncertainty parameter.","Index",2017-11-28 00:46:50
"/Users/awhitten/Bitbucket/Fisheries/snap-assess/models/BC/plots//index3_cpuecheck_Long_Line.png","Observed vs. expected index values with smoother for Long_Line","Index",2017-11-28 00:46:50
"/Users/awhitten/Bitbucket/Fisheries/snap-assess/models/BC/plots//index5_logcpuefit_Long_Line.png","Fit to log index data on log scale for Long_Line. Lines indicate 95% uncertainty interval around index values. Thicker lines (if present) indicate input uncertainty before addition of estimated additional uncertainty parameter.","Index",2017-11-28 00:46:50
"/Users/awhitten/Bitbucket/Fisheries/snap-assess/models/BC/plots//index6_logcpuecheck_Long_Line.png","log(observed) vs. log(expected) index values with smoother for Long_Line","Index",2017-11-28 00:46:50
"/Users/awhitten/Bitbucket/Fisheries/snap-assess/models/BC/plots//index2_cpuefit_Haul_Seine.png","Fit to index data for Haul_Seine. Lines indicate 95% uncertainty interval around index values. Thicker lines (if present) indicate input uncertainty before addition of estimated additional uncertainty parameter.","Index",2017-11-28 00:46:50
"/Users/awhitten/Bitbucket/Fisheries/snap-assess/models/BC/plots//index3_cpuecheck_Haul_Seine.png","Observed vs. expected index values with smoother for Haul_Seine","Index",2017-11-28 00:46:50
"/Users/awhitten/Bitbucket/Fisheries/snap-assess/models/BC/plots//index5_logcpuefit_Haul_Seine.png","Fit to log index data on log scale for Haul_Seine. Lines indicate 95% uncertainty interval around index values. Thicker lines (if present) indicate input uncertainty before addition of estimated additional uncertainty parameter.","Index",2017-11-28 00:46:50
"/Users/awhitten/Bitbucket/Fisheries/snap-assess/models/BC/plots//index6_logcpuecheck_Haul_Seine.png","log(observed) vs. log(expected) index values with smoother for Haul_Seine","Index",2017-11-28 00:46:50
"/Users/awhitten/Bitbucket/Fisheries/snap-assess/models/BC/plots//index2_cpuefit_RR_Pinky.png","Fit to index data for RR_Pinky. Lines indicate 95% uncertainty interval around index values. Thicker lines (if present) indicate input uncertainty before addition of estimated additional uncertainty parameter.","Index",2017-11-28 00:46:50
"/Users/awhitten/Bitbucket/Fisheries/snap-assess/models/BC/plots//index3_cpuecheck_RR_Pinky.png","Observed vs. expected index values with smoother for RR_Pinky","Index",2017-11-28 00:46:50
"/Users/awhitten/Bitbucket/Fisheries/snap-assess/models/BC/plots//index5_logcpuefit_RR_Pinky.png","Fit to log index data on log scale for RR_Pinky. Lines indicate 95% uncertainty interval around index values. Thicker lines (if present) indicate input uncertainty before addition of estimated additional uncertainty parameter.","Index",2017-11-28 00:46:50
"/Users/awhitten/Bitbucket/Fisheries/snap-assess/models/BC/plots//index6_logcpuecheck_RR_Pinky.png","log(observed) vs. log(expected) index values with smoother for RR_Pinky","Index",2017-11-28 00:46:50
"/Users/awhitten/Bitbucket/Fisheries/snap-assess/models/BC/plots//index2_cpuefit_RR_Adult.png","Fit to index data for RR_Adult. Lines indicate 95% uncertainty interval around index values. Thicker lines (if present) indicate input uncertainty before addition of estimated additional uncertainty parameter.","Index",2017-11-28 00:46:50
"/Users/awhitten/Bitbucket/Fisheries/snap-assess/models/BC/plots//index3_cpuecheck_RR_Adult.png","Observed vs. expected index values with smoother for RR_Adult","Index",2017-11-28 00:46:50
"/Users/awhitten/Bitbucket/Fisheries/snap-assess/models/BC/plots//index5_logcpuefit_RR_Adult.png","Fit to log index data on log scale for RR_Adult. Lines indicate 95% uncertainty interval around index values. Thicker lines (if present) indicate input uncertainty before addition of estimated additional uncertainty parameter.","Index",2017-11-28 00:46:50
"/Users/awhitten/Bitbucket/Fisheries/snap-assess/models/BC/plots//index6_logcpuecheck_RR_Adult.png","log(observed) vs. log(expected) index values with smoother for RR_Adult","Index",2017-11-28 00:46:50
"/Users/awhitten/Bitbucket/Fisheries/snap-assess/models/BC/plots//index2_cpuefit_YOY_Survey.png","Fit to index data for YOY_Survey. Lines indicate 95% uncertainty interval around index values. Thicker lines (if present) indicate input uncertainty before addition of estimated additional uncertainty parameter.","Index",2017-11-28 00:46:50
"/Users/awhitten/Bitbucket/Fisheries/snap-assess/models/BC/plots//index3_cpuecheck_YOY_Survey.png","Observed vs. expected index values with smoother for YOY_Survey","Index",2017-11-28 00:46:50
"/Users/awhitten/Bitbucket/Fisheries/snap-assess/models/BC/plots//index5_logcpuefit_YOY_Survey.png","Fit to log index data on log scale for YOY_Survey. Lines indicate 95% uncertainty interval around index values. Thicker lines (if present) indicate input uncertainty before addition of estimated additional uncertainty parameter.","Index",2017-11-28 00:46:50
"/Users/awhitten/Bitbucket/Fisheries/snap-assess/models/BC/plots//index6_logcpuecheck_YOY_Survey.png","log(observed) vs. log(expected) index values with smoother for YOY_Survey","Index",2017-11-28 00:46:50
"/Users/awhitten/Bitbucket/Fisheries/snap-assess/models/BC/plots//numbers1_sex1_beg.png","Beginning of year expected numbers at age of females in (max ~ 12.6 million)","Numbers",2017-11-28 00:46:50
"/Users/awhitten/Bitbucket/Fisheries/snap-assess/models/BC/plots//numbers1_sex2_beg.png","Beginning of year expected numbers at age of males in (max ~ 12.6 million)","Numbers",2017-11-28 00:46:50
"/Users/awhitten/Bitbucket/Fisheries/snap-assess/models/BC/plots//numbers2_meanage_beg.png","Beginning of year mean age in the population","Numbers",2017-11-28 00:46:50
"/Users/awhitten/Bitbucket/Fisheries/snap-assess/models/BC/plots//numbers1_sex1_mid.png","Middle of year expected numbers at age of females in (max ~ 11.7 million)","Numbers",2017-11-28 00:46:50
"/Users/awhitten/Bitbucket/Fisheries/snap-assess/models/BC/plots//numbers1_sex2_mid.png","Middle of year expected numbers at age of males in (max ~ 11.7 million)","Numbers",2017-11-28 00:46:50
"/Users/awhitten/Bitbucket/Fisheries/snap-assess/models/BC/plots//numbers2_meanage_mid.png","Middle of year mean age in the population","Numbers",2017-11-28 00:46:50
"/Users/awhitten/Bitbucket/Fisheries/snap-assess/models/BC/plots//numbers3_ratio_age.png","Sex ratio of numbers at age (males/females)","Numbers",2017-11-28 00:46:50
"/Users/awhitten/Bitbucket/Fisheries/snap-assess/models/BC/plots//numbers6_len_sex1.png","Beginning of year expected numbers at length of females in (max ~ 18.2 million)","Numbers",2017-11-28 00:46:50
"/Users/awhitten/Bitbucket/Fisheries/snap-assess/models/BC/plots//numbers6_len_sex2.png","Beginning of year expected numbers at length of males in (max ~ 18.2 million)","Numbers",2017-11-28 00:46:50
"/Users/awhitten/Bitbucket/Fisheries/snap-assess/models/BC/plots//numbers7_meanlen.png","Beginning of year mean length (cm) in the population","Numbers",2017-11-28 00:46:50
"/Users/awhitten/Bitbucket/Fisheries/snap-assess/models/BC/plots//numbers6_len_sex1.png","Middle of year expected numbers at length of females in (max ~ 17.2 million)","Numbers",2017-11-28 00:46:50
"/Users/awhitten/Bitbucket/Fisheries/snap-assess/models/BC/plots//numbers6_len_sex2.png","Middle of year expected numbers at length of males in (max ~ 17.2 million)","Numbers",2017-11-28 00:46:50
"/Users/awhitten/Bitbucket/Fisheries/snap-assess/models/BC/plots//numbers7_meanlen.png","Middle of year mean length (cm) in the population","Numbers",2017-11-28 00:46:50
"/Users/awhitten/Bitbucket/Fisheries/snap-assess/models/BC/plots//numbers8_ratio_len1.png","Sex ratio of numbers at length (males/females)","Numbers",2017-11-28 00:46:50
"/Users/awhitten/Bitbucket/Fisheries/snap-assess/models/BC/plots//numbers8_ratio_len2.png","Sex ratio of numbers at length (females/males)","Numbers",2017-11-28 00:46:50
"/Users/awhitten/Bitbucket/Fisheries/snap-assess/models/BC/plots//numbers4_equilagecomp.png","Equilibrium age distribution","Numbers",2017-11-28 00:46:50
"/Users/awhitten/Bitbucket/Fisheries/snap-assess/models/BC/plots//numbers5_ageerrorSD.png","Ageing imprecision: SD of observed age (yr)","Numbers",2017-11-28 00:46:50
"/Users/awhitten/Bitbucket/Fisheries/snap-assess/models/BC/plots//numbers5_ageerrorMeans.png","Ageing imprecision: Mean observed age (yr)","Numbers",2017-11-28 00:46:50
"/Users/awhitten/Bitbucket/Fisheries/snap-assess/models/BC/plots//numbers5_ageerror_matrix_1.png","Ageing imprecision: matrix for method 1","Numbers",2017-11-28 00:46:50
"/Users/awhitten/Bitbucket/Fisheries/snap-assess/models/BC/plots//comp_lenfit_flt1mkt2_page1.png","length comps, retained, Long_Line (plot 1 of 2)","LenComp",2017-11-28 00:46:50
"/Users/awhitten/Bitbucket/Fisheries/snap-assess/models/BC/plots//comp_lenfit_flt1mkt2_page2.png","length comps, retained, Long_Line (plot 2 of 2)","LenComp",2017-11-28 00:46:50
"/Users/awhitten/Bitbucket/Fisheries/snap-assess/models/BC/plots//comp_lenfit_residsflt1mkt2_page2.png","Pearson residuals, retained, Long_Line (max=58.01) (plot 2 of 2) <br> 
Closed bubbles are positive residuals (observed > expected) and open bubbles are negative residuals (observed < expected).","LenComp",2017-11-28 00:46:50
"/Users/awhitten/Bitbucket/Fisheries/snap-assess/models/BC/plots//comp_lenfit_sampsize_flt1mkt2.png","N-EffN comparison, length comps, retained, Long_Line","LenComp",2017-11-28 00:46:50
"/Users/awhitten/Bitbucket/Fisheries/snap-assess/models/BC/plots//comp_lenfit_data_weighting_TA1.8_Long_Line.png","Francis data weighting method TA1.8 Long_Line <br> Suggested sample size adjustment (with 95% interval) for len data from Long_Line:<br>0.0158 (0.0095-0.0387)","LenComp",2017-11-28 00:46:50
"/Users/awhitten/Bitbucket/Fisheries/snap-assess/models/BC/plots//comp_lenfit_flt2mkt2.png","length comps, retained, Haul_Seine","LenComp",2017-11-28 00:46:50
"/Users/awhitten/Bitbucket/Fisheries/snap-assess/models/BC/plots//comp_lenfit_residsflt2mkt2.png","Pearson residuals, retained, Haul_Seine (max=24.77) <br> 
Closed bubbles are positive residuals (observed > expected) and open bubbles are negative residuals (observed < expected).","LenComp",2017-11-28 00:46:50
"/Users/awhitten/Bitbucket/Fisheries/snap-assess/models/BC/plots//comp_lenfit_sampsize_flt2mkt2.png","N-EffN comparison, length comps, retained, Haul_Seine","LenComp",2017-11-28 00:46:50
"/Users/awhitten/Bitbucket/Fisheries/snap-assess/models/BC/plots//comp_lenfit_data_weighting_TA1.8_Haul_Seine.png","Francis data weighting method TA1.8 Haul_Seine <br> Suggested sample size adjustment (with 95% interval) for len data from Haul_Seine:<br>0.109 (0.0717-0.9384)","LenComp",2017-11-28 00:46:50
"/Users/awhitten/Bitbucket/Fisheries/snap-assess/models/BC/plots//comp_lenfit_flt4mkt2.png","length comps, retained, RR_Pinky","LenComp",2017-11-28 00:46:50
"/Users/awhitten/Bitbucket/Fisheries/snap-assess/models/BC/plots//comp_lenfit_residsflt4mkt2.png","Pearson residuals, retained, RR_Pinky (max=12.47) <br> 
Closed bubbles are positive residuals (observed > expected) and open bubbles are negative residuals (observed < expected).","LenComp",2017-11-28 00:46:50
"/Users/awhitten/Bitbucket/Fisheries/snap-assess/models/BC/plots//comp_lenfit_sampsize_flt4mkt2.png","N-EffN comparison, length comps, retained, RR_Pinky","LenComp",2017-11-28 00:46:50
"/Users/awhitten/Bitbucket/Fisheries/snap-assess/models/BC/plots//comp_lenfit_data_weighting_TA1.8_RR_Pinky.png","Francis data weighting method TA1.8 RR_Pinky <br> Suggested sample size adjustment (with 95% interval) for len data from RR_Pinky:<br>0.0562 (0.0288-0.224)","LenComp",2017-11-28 00:46:50
"/Users/awhitten/Bitbucket/Fisheries/snap-assess/models/BC/plots//comp_lenfit_flt5mkt2.png","length comps, retained, RR_Adult","LenComp",2017-11-28 00:46:50
"/Users/awhitten/Bitbucket/Fisheries/snap-assess/models/BC/plots//comp_lenfit_residsflt5mkt2.png","Pearson residuals, retained, RR_Adult (max=15.38) <br> 
Closed bubbles are positive residuals (observed > expected) and open bubbles are negative residuals (observed < expected).","LenComp",2017-11-28 00:46:50
"/Users/awhitten/Bitbucket/Fisheries/snap-assess/models/BC/plots//comp_lenfit_sampsize_flt5mkt2.png","N-EffN comparison, length comps, retained, RR_Adult","LenComp",2017-11-28 00:46:50
"/Users/awhitten/Bitbucket/Fisheries/snap-assess/models/BC/plots//comp_lenfit_data_weighting_TA1.8_RR_Adult.png","Francis data weighting method TA1.8 RR_Adult <br> Suggested sample size adjustment (with 95% interval) for len data from RR_Adult:<br>0.0845 (0.0548-0.2141)","LenComp",2017-11-28 00:46:50
"/Users/awhitten/Bitbucket/Fisheries/snap-assess/models/BC/plots//comp_lenfit_mkt2_aggregated_across_time.png","length comps, retained, aggregated across time by fleet","LenComp",2017-11-28 00:46:50
"/Users/awhitten/Bitbucket/Fisheries/snap-assess/models/BC/plots//comp_lenfit_sex1mkt2_multi-fleet_comparison.png","Note: this plot doesn't seem to be working right for some models.<br><br> Pearson residuals, sexes combined, retained, comparing across fleets <br> 
Closed bubbles are positive residuals (observed > expected) and open bubbles are negative residuals (observed < expected).","LenComp",2017-11-28 00:46:50
"/Users/awhitten/Bitbucket/Fisheries/snap-assess/models/BC/plots//comp_condAALfit_residsflt1mkt2_page1.png","Pearson residuals, retained, Long_Line (max=27.36) (plot 1 of 2)","A@LComp",2017-11-28 00:46:50
"/Users/awhitten/Bitbucket/Fisheries/snap-assess/models/BC/plots//comp_condAALfit_residsflt1mkt2_page2.png","Pearson residuals, retained, Long_Line (max=27.36) (plot 2 of 2)","A@LComp",2017-11-28 00:46:50
"/Users/awhitten/Bitbucket/Fisheries/snap-assess/models/BC/plots//comp_condAALfit_residsflt2mkt2.png","Pearson residuals, retained, Haul_Seine (max=13.1)","A@LComp",2017-11-28 00:46:50
"/Users/awhitten/Bitbucket/Fisheries/snap-assess/models/BC/plots//comp_condAALfit_residsflt4mkt2_page1.png","Pearson residuals, retained, RR_Pinky (max=40.98) (plot 1 of 3)","A@LComp",2017-11-28 00:46:50
"/Users/awhitten/Bitbucket/Fisheries/snap-assess/models/BC/plots//comp_condAALfit_residsflt4mkt2_page2.png","Pearson residuals, retained, RR_Pinky (max=40.98) (plot 2 of 3)","A@LComp",2017-11-28 00:46:50
"/Users/awhitten/Bitbucket/Fisheries/snap-assess/models/BC/plots//comp_condAALfit_residsflt4mkt2_page3.png","Pearson residuals, retained, RR_Pinky (max=40.98) (plot 3 of 3)","A@LComp",2017-11-28 00:46:50
"/Users/awhitten/Bitbucket/Fisheries/snap-assess/models/BC/plots//comp_condAALfit_residsflt5mkt2_page1.png","Pearson residuals, retained, RR_Adult (max=14.67) (plot 1 of 2)","A@LComp",2017-11-28 00:46:50
"/Users/awhitten/Bitbucket/Fisheries/snap-assess/models/BC/plots//comp_condAALfit_residsflt5mkt2_page2.png","Pearson residuals, retained, RR_Adult (max=14.67) (plot 2 of 2)","A@LComp",2017-11-28 00:46:50
"/Users/awhitten/Bitbucket/Fisheries/snap-assess/models/BC/plots//comp_condAALfit_data_weighting_TA1.8_condAgeLong_Line.png","Francis data weighting method TA1.8 for conditional age data Long_Line <br>For more info, see<br> <blockquote>Francis, R.I.C.C. (2011). Data weighting in statistical fisheries stock assessment models. <i>Can. J. Fish. Aquat. Sci.</i> 68: 1124-1138.</blockquote>","A@LComp",2017-11-28 00:46:50
"/Users/awhitten/Bitbucket/Fisheries/snap-assess/models/BC/plots//comp_condAALfit_Andre_plotsflt1mkt2_page1.png","Conditional AAL plot, retained, Long_Line (plot 1 of 4)
These plots show mean age and std. dev. in conditional A@L.<br>Left plots are mean A@L by size-class (obs. and pred.) with 90% CIs based on adding 1.64 SE of mean to the data.<br>Right plots in each pair are SE of mean A@L (obs. and pred.) with 90% CIs based on the chi-square distribution.","A@LComp",2017-11-28 00:46:50
"/Users/awhitten/Bitbucket/Fisheries/snap-assess/models/BC/plots//comp_condAALfit_Andre_plotsflt1mkt2_page2.png","Conditional AAL plot, retained, Long_Line (plot 2 of 4)
These plots show mean age and std. dev. in conditional A@L.<br>Left plots are mean A@L by size-class (obs. and pred.) with 90% CIs based on adding 1.64 SE of mean to the data.<br>Right plots in each pair are SE of mean A@L (obs. and pred.) with 90% CIs based on the chi-square distribution.","A@LComp",2017-11-28 00:46:50
"/Users/awhitten/Bitbucket/Fisheries/snap-assess/models/BC/plots//comp_condAALfit_Andre_plotsflt1mkt2_page3.png","Conditional AAL plot, retained, Long_Line (plot 3 of 4)
These plots show mean age and std. dev. in conditional A@L.<br>Left plots are mean A@L by size-class (obs. and pred.) with 90% CIs based on adding 1.64 SE of mean to the data.<br>Right plots in each pair are SE of mean A@L (obs. and pred.) with 90% CIs based on the chi-square distribution.","A@LComp",2017-11-28 00:46:50
"/Users/awhitten/Bitbucket/Fisheries/snap-assess/models/BC/plots//comp_condAALfit_Andre_plotsflt1mkt2_page4.png","Conditional AAL plot, retained, Long_Line (plot 4 of 4)
These plots show mean age and std. dev. in conditional A@L.<br>Left plots are mean A@L by size-class (obs. and pred.) with 90% CIs based on adding 1.64 SE of mean to the data.<br>Right plots in each pair are SE of mean A@L (obs. and pred.) with 90% CIs based on the chi-square distribution.","A@LComp",2017-11-28 00:46:50
"/Users/awhitten/Bitbucket/Fisheries/snap-assess/models/BC/plots//comp_condAALfit_data_weighting_TA1.8_condAgeHaul_Seine.png","Francis data weighting method TA1.8 for conditional age data Haul_Seine <br>For more info, see<br> <blockquote>Francis, R.I.C.C. (2011). Data weighting in statistical fisheries stock assessment models. <i>Can. J. Fish. Aquat. Sci.</i> 68: 1124-1138.</blockquote>","A@LComp",2017-11-28 00:46:50
"/Users/awhitten/Bitbucket/Fisheries/snap-assess/models/BC/plots//comp_condAALfit_Andre_plotsflt2mkt2_page1.png","Conditional AAL plot, retained, Haul_Seine (plot 1 of 3)
These plots show mean age and std. dev. in conditional A@L.<br>Left plots are mean A@L by size-class (obs. and pred.) with 90% CIs based on adding 1.64 SE of mean to the data.<br>Right plots in each pair are SE of mean A@L (obs. and pred.) with 90% CIs based on the chi-square distribution.","A@LComp",2017-11-28 00:46:50
"/Users/awhitten/Bitbucket/Fisheries/snap-assess/models/BC/plots//comp_condAALfit_Andre_plotsflt2mkt2_page2.png","Conditional AAL plot, retained, Haul_Seine (plot 2 of 3)
These plots show mean age and std. dev. in conditional A@L.<br>Left plots are mean A@L by size-class (obs. and pred.) with 90% CIs based on adding 1.64 SE of mean to the data.<br>Right plots in each pair are SE of mean A@L (obs. and pred.) with 90% CIs based on the chi-square distribution.","A@LComp",2017-11-28 00:46:50
"/Users/awhitten/Bitbucket/Fisheries/snap-assess/models/BC/plots//comp_condAALfit_Andre_plotsflt2mkt2_page3.png","Conditional AAL plot, retained, Haul_Seine (plot 3 of 3)
These plots show mean age and std. dev. in conditional A@L.<br>Left plots are mean A@L by size-class (obs. and pred.) with 90% CIs based on adding 1.64 SE of mean to the data.<br>Right plots in each pair are SE of mean A@L (obs. and pred.) with 90% CIs based on the chi-square distribution.","A@LComp",2017-11-28 00:46:50
"/Users/awhitten/Bitbucket/Fisheries/snap-assess/models/BC/plots//comp_condAALfit_data_weighting_TA1.8_condAgeRR_Pinky.png","Francis data weighting method TA1.8 for conditional age data RR_Pinky <br>For more info, see<br> <blockquote>Francis, R.I.C.C. (2011). Data weighting in statistical fisheries stock assessment models. <i>Can. J. Fish. Aquat. Sci.</i> 68: 1124-1138.</blockquote>","A@LComp",2017-11-28 00:46:50
"/Users/awhitten/Bitbucket/Fisheries/snap-assess/models/BC/plots//comp_condAALfit_Andre_plotsflt4mkt2_page1.png","Conditional AAL plot, retained, RR_Pinky (plot 1 of 7)
These plots show mean age and std. dev. in conditional A@L.<br>Left plots are mean A@L by size-class (obs. and pred.) with 90% CIs based on adding 1.64 SE of mean to the data.<br>Right plots in each pair are SE of mean A@L (obs. and pred.) with 90% CIs based on the chi-square distribution.","A@LComp",2017-11-28 00:46:50
"/Users/awhitten/Bitbucket/Fisheries/snap-assess/models/BC/plots//comp_condAALfit_Andre_plotsflt4mkt2_page2.png","Conditional AAL plot, retained, RR_Pinky (plot 2 of 7)
These plots show mean age and std. dev. in conditional A@L.<br>Left plots are mean A@L by size-class (obs. and pred.) with 90% CIs based on adding 1.64 SE of mean to the data.<br>Right plots in each pair are SE of mean A@L (obs. and pred.) with 90% CIs based on the chi-square distribution.","A@LComp",2017-11-28 00:46:50
"/Users/awhitten/Bitbucket/Fisheries/snap-assess/models/BC/plots//comp_condAALfit_Andre_plotsflt4mkt2_page3.png","Conditional AAL plot, retained, RR_Pinky (plot 3 of 7)
These plots show mean age and std. dev. in conditional A@L.<br>Left plots are mean A@L by size-class (obs. and pred.) with 90% CIs based on adding 1.64 SE of mean to the data.<br>Right plots in each pair are SE of mean A@L (obs. and pred.) with 90% CIs based on the chi-square distribution.","A@LComp",2017-11-28 00:46:50
"/Users/awhitten/Bitbucket/Fisheries/snap-assess/models/BC/plots//comp_condAALfit_Andre_plotsflt4mkt2_page4.png","Conditional AAL plot, retained, RR_Pinky (plot 4 of 7)
These plots show mean age and std. dev. in conditional A@L.<br>Left plots are mean A@L by size-class (obs. and pred.) with 90% CIs based on adding 1.64 SE of mean to the data.<br>Right plots in each pair are SE of mean A@L (obs. and pred.) with 90% CIs based on the chi-square distribution.","A@LComp",2017-11-28 00:46:50
"/Users/awhitten/Bitbucket/Fisheries/snap-assess/models/BC/plots//comp_condAALfit_Andre_plotsflt4mkt2_page5.png","Conditional AAL plot, retained, RR_Pinky (plot 5 of 7)
These plots show mean age and std. dev. in conditional A@L.<br>Left plots are mean A@L by size-class (obs. and pred.) with 90% CIs based on adding 1.64 SE of mean to the data.<br>Right plots in each pair are SE of mean A@L (obs. and pred.) with 90% CIs based on the chi-square distribution.","A@LComp",2017-11-28 00:46:50
"/Users/awhitten/Bitbucket/Fisheries/snap-assess/models/BC/plots//comp_condAALfit_Andre_plotsflt4mkt2_page6.png","Conditional AAL plot, retained, RR_Pinky (plot 6 of 7)
These plots show mean age and std. dev. in conditional A@L.<br>Left plots are mean A@L by size-class (obs. and pred.) with 90% CIs based on adding 1.64 SE of mean to the data.<br>Right plots in each pair are SE of mean A@L (obs. and pred.) with 90% CIs based on the chi-square distribution.","A@LComp",2017-11-28 00:46:50
"/Users/awhitten/Bitbucket/Fisheries/snap-assess/models/BC/plots//comp_condAALfit_Andre_plotsflt4mkt2_page7.png","Conditional AAL plot, retained, RR_Pinky (plot 7 of 7)
These plots show mean age and std. dev. in conditional A@L.<br>Left plots are mean A@L by size-class (obs. and pred.) with 90% CIs based on adding 1.64 SE of mean to the data.<br>Right plots in each pair are SE of mean A@L (obs. and pred.) with 90% CIs based on the chi-square distribution.","A@LComp",2017-11-28 00:46:50
"/Users/awhitten/Bitbucket/Fisheries/snap-assess/models/BC/plots//comp_condAALfit_data_weighting_TA1.8_condAgeRR_Adult.png","Francis data weighting method TA1.8 for conditional age data RR_Adult <br>For more info, see<br> <blockquote>Francis, R.I.C.C. (2011). Data weighting in statistical fisheries stock assessment models. <i>Can. J. Fish. Aquat. Sci.</i> 68: 1124-1138.</blockquote>","A@LComp",2017-11-28 00:46:50
"/Users/awhitten/Bitbucket/Fisheries/snap-assess/models/BC/plots//comp_condAALfit_Andre_plotsflt5mkt2_page1.png","Conditional AAL plot, retained, RR_Adult (plot 1 of 5)
These plots show mean age and std. dev. in conditional A@L.<br>Left plots are mean A@L by size-class (obs. and pred.) with 90% CIs based on adding 1.64 SE of mean to the data.<br>Right plots in each pair are SE of mean A@L (obs. and pred.) with 90% CIs based on the chi-square distribution.","A@LComp",2017-11-28 00:46:50
"/Users/awhitten/Bitbucket/Fisheries/snap-assess/models/BC/plots//comp_condAALfit_Andre_plotsflt5mkt2_page2.png","Conditional AAL plot, retained, RR_Adult (plot 2 of 5)
These plots show mean age and std. dev. in conditional A@L.<br>Left plots are mean A@L by size-class (obs. and pred.) with 90% CIs based on adding 1.64 SE of mean to the data.<br>Right plots in each pair are SE of mean A@L (obs. and pred.) with 90% CIs based on the chi-square distribution.","A@LComp",2017-11-28 00:46:50
"/Users/awhitten/Bitbucket/Fisheries/snap-assess/models/BC/plots//comp_condAALfit_Andre_plotsflt5mkt2_page3.png","Conditional AAL plot, retained, RR_Adult (plot 3 of 5)
These plots show mean age and std. dev. in conditional A@L.<br>Left plots are mean A@L by size-class (obs. and pred.) with 90% CIs based on adding 1.64 SE of mean to the data.<br>Right plots in each pair are SE of mean A@L (obs. and pred.) with 90% CIs based on the chi-square distribution.","A@LComp",2017-11-28 00:46:50
"/Users/awhitten/Bitbucket/Fisheries/snap-assess/models/BC/plots//comp_condAALfit_Andre_plotsflt5mkt2_page4.png","Conditional AAL plot, retained, RR_Adult (plot 4 of 5)
These plots show mean age and std. dev. in conditional A@L.<br>Left plots are mean A@L by size-class (obs. and pred.) with 90% CIs based on adding 1.64 SE of mean to the data.<br>Right plots in each pair are SE of mean A@L (obs. and pred.) with 90% CIs based on the chi-square distribution.","A@LComp",2017-11-28 00:46:50
"/Users/awhitten/Bitbucket/Fisheries/snap-assess/models/BC/plots//comp_condAALfit_Andre_plotsflt5mkt2_page5.png","Conditional AAL plot, retained, RR_Adult (plot 5 of 5)
These plots show mean age and std. dev. in conditional A@L.<br>Left plots are mean A@L by size-class (obs. and pred.) with 90% CIs based on adding 1.64 SE of mean to the data.<br>Right plots in each pair are SE of mean A@L (obs. and pred.) with 90% CIs based on the chi-square distribution.","A@LComp",2017-11-28 00:46:50
"/Users/awhitten/Bitbucket/Fisheries/snap-assess/models/BC/plots/yield2_Hilborn_surplus_production.png","Surplus production plot. For interpretation, see<br> <blockquote>Walters, Hilborn, and  Christensen, 2008, Surplus production dynamics in declining and recovering fish populations. <i>Can. J. Fish. Aquat. Sci.</i> 65: 2536-2551.</blockquote>","Yield",2017-11-28 00:46:50
"/Users/awhitten/Bitbucket/Fisheries/snap-assess/models/BC/plots//data_plot.png","Data presence by year for each fleet","Data",2017-11-28 00:46:50
